{"pagination":{"totalItems":1982063,"totalPages":991032,"currentPage":1,"itemsPerPage":2},"items":[{"id":3027555,"eventID":11453315,"sport":"esoccer","timer":null,"score":{"home":1,"away":1},"scoreHT":{"home":0,"away":1},"competition":{"id":37298,"name":"Esoccer H2H GG League - 8 mins play","cc":null,"nameSlug":"esoccer-h2h-gg-league-8-mins-play"},"home":{"id":1211339,"name":"demolishor","teamName":"A.Madrid","imageUrl":"https://storage.googleapis.com/g365-imgs/soccer/team/real-madrid.png","cc":null,"nameSlug":"demolishor","teamNameSlug":"a.madrid"},"away":{"id":1155880,"name":"dart","teamName":"Liverpool","imageUrl":"https://storage.googleapis.com/g365-imgs/soccer/team/liverpool.png","cc":null,"nameSlug":"dart","teamNameSlug":"liverpool"},"winner":"draw","winnerName":"draw","startTime":"2026-02-16T12:57:00.000Z","status":"ended","h2hSlug":"/fifa/analise/esoccer-h2h-gg-league-8-mins-play/37298/demolishor.1211339-vs-dart.1155880/11453315","h2hTeamSlug":"/fifa/analise/esoccer-h2h-gg-league-8-mins-play/37298/demolishor.1211339-vs-dart.1155880/11453315/a.madrid.1211339-vs-liverpool.1155880"},{"id":3027551,"eventID":11453345,"sport":"esoccer","timer":null,"score":{"home":4,"away":4},"scoreHT":{"home":0,"away":1},"competition":{"id":38439,"name":"Esoccer Battle Volta - 6 mins play","cc":null,"nameSlug":"esoccer-battle-volta-6-mins-play"},"home":{"id":1217780,"name":"stason23","teamName":"Bologna","imageUrl":"https://storage.googleapis.com/g365-imgs/soccer/team/bologna-u18.png","cc":null,"nameSlug":"stason23","teamNameSlug":"bologna"},"away":{"id":1097343,"name":"dan_dragonio","teamName":"Juventus","imageUrl":"https://storage.googleapis.com/g365-imgs/soccer/team/juventus.png","cc":null,"nameSlug":"dandragonio","teamNameSlug":"juventus"},"winner":"draw","winnerName":"draw","startTime":"2026-02-16T12:54:13.000Z","status":"ended","h2hSlug":"/fifa/analise/esoccer-battle-volta-6-mins-play/38439/stason23.1217780-vs-dandragonio.1097343/11453345","h2hTeamSlug":"/fifa/analise/esoccer-battle-volta-6-mins-play/38439/stason23.1217780-vs-dandragonio.1097343/11453345/bologna.1217780-vs-juventus.1097343"}]}
